

Total Height:  212 = (20 + 1 + 10 + 150 + 10 + 1 + 20) 

Total Width:  462 = (20 + 1 + 10 + 400 + 10 + 1 + 20)

Browser Calculated Height:  172 = (1 + 10 + 150 + 10 + 1)

Browser Calculated Width:  422 = (1 + 10 + 400 + 10 + 1)